<!-- Generated by IcoMoon.io -->
<svg version="1.1" xmlns="http://www.w3.org/2000/svg" width="1024" height="1024" viewBox="0 0 1024 1024">
<g id="icomoon-ignore">
</g>
<path fill="#000" d="M63.197 579.311l444.686 444.689v-280.428c393.546-35.368 452.921-375.144 452.921-576.661 0-95.519-13.019-164.053-13.528-166.911l-39.796 3.804c0 168.053-43.849 288.606-130.339 358.3-97.847 78.86-225.222 70.289-269.24 64.374v-291.841l-444.704 444.674z"></path>
</svg>
